{
    "codeToName": {
        "32": "uni0020",
        "33": "uni0021",
        "34": "uni0022",
        "35": "uni0023",
        "36": "uni0024",
        "37": "uni0025",
        "38": "uni0026",
        "39": "uni0027",
        "40": "uni0028",
        "41": "uni0029",
        "42": "uni002a",
        "43": "uni002b",
        "44": "uni002c",
        "45": "uni002d",
        "46": "uni002e",
        "47": "uni002f",
        "48": "uni0030",
        "49": "uni0031",
        "50": "uni0032",
        "51": "uni0033",
        "52": "uni0034",
        "53": "uni0035",
        "54": "uni0036",
        "55": "uni0037",
        "56": "uni0038",
        "57": "uni0039",
        "58": "uni003a",
        "59": "uni003b",
        "60": "uni003c",
        "61": "uni003d",
        "62": "uni003e",
        "63": "uni003f",
        "64": "uni0040",
        "65": "uni0041",
        "66": "uni0042",
        "67": "uni0043",
        "68": "uni0044",
        "69": "uni0045",
        "70": "uni0046",
        "71": "uni0047",
        "72": "uni0048",
        "73": "uni0049",
        "74": "uni004a",
        "75": "uni004b",
        "76": "uni004c",
        "77": "uni004d",
        "78": "uni004e",
        "79": "uni004f",
        "80": "uni0050",
        "81": "uni0051",
        "82": "uni0052",
        "83": "uni0053",
        "84": "uni0054",
        "85": "uni0055",
        "86": "uni0056",
        "87": "uni0057",
        "88": "uni0058",
        "89": "uni0059",
        "90": "uni005a",
        "91": "uni005b",
        "92": "uni005c",
        "93": "uni005d",
        "94": "uni005e",
        "95": "uni005f",
        "96": "uni0060",
        "97": "uni0061",
        "98": "uni0062",
        "99": "uni0063",
        "100": "uni0064",
        "101": "uni0065",
        "102": "uni0066",
        "103": "uni0067",
        "104": "uni0068",
        "105": "uni0069",
        "106": "uni006a",
        "107": "uni006b",
        "108": "uni006c",
        "109": "uni006d",
        "110": "uni006e",
        "111": "uni006f",
        "112": "uni0070",
        "113": "uni0071",
        "114": "uni0072",
        "115": "uni0073",
        "116": "uni0074",
        "117": "uni0075",
        "118": "uni0076",
        "119": "uni0077",
        "120": "uni0078",
        "121": "uni0079",
        "122": "uni007a",
        "123": "uni007b",
        "124": "uni007c",
        "125": "uni007d",
        "126": "uni007e",
        "160": "uni00a0",
        "161": "uni00a1",
        "162": "uni00a2",
        "163": "uni00a3",
        "164": "uni00a4",
        "165": "uni00a5",
        "166": "uni00a6",
        "167": "uni00a7",
        "168": "uni00a8",
        "169": "uni00a9",
        "170": "uni00aa",
        "171": "uni00ab",
        "172": "uni00ac",
        "173": "uni00ad",
        "174": "uni00ae",
        "175": "uni00af",
        "176": "uni00b0",
        "177": "uni00b1",
        "178": "uni00b2",
        "179": "uni00b3",
        "180": "uni00b4",
        "181": "uni00b5",
        "182": "uni00b6",
        "183": "uni00b7",
        "184": "uni00b8",
        "185": "uni00b9",
        "186": "uni00ba",
        "187": "uni00bb",
        "188": "uni00bc",
        "189": "uni00bd",
        "190": "uni00be",
        "191": "uni00bf",
        "192": "uni00c0",
        "193": "uni00c1",
        "194": "uni00c2",
        "195": "uni00c3",
        "196": "uni00c4",
        "197": "uni00c5",
        "198": "uni00c6",
        "199": "uni00c7",
        "200": "uni00c8",
        "201": "uni00c9",
        "202": "uni00ca",
        "203": "uni00cb",
        "204": "uni00cc",
        "205": "uni00cd",
        "206": "uni00ce",
        "207": "uni00cf",
        "208": "uni00d0",
        "209": "uni00d1",
        "210": "uni00d2",
        "211": "uni00d3",
        "212": "uni00d4",
        "213": "uni00d5",
        "214": "uni00d6",
        "215": "uni00d7",
        "216": "uni00d8",
        "217": "uni00d9",
        "218": "uni00da",
        "219": "uni00db",
        "220": "uni00dc",
        "221": "uni00dd",
        "222": "uni00de",
        "223": "uni00df",
        "224": "uni00e0",
        "225": "uni00e1",
        "226": "uni00e2",
        "227": "uni00e3",
        "228": "uni00e4",
        "229": "uni00e5",
        "230": "uni00e6",
        "231": "uni00e7",
        "232": "uni00e8",
        "233": "uni00e9",
        "234": "uni00ea",
        "235": "uni00eb",
        "236": "uni00ec",
        "237": "uni00ed",
        "238": "uni00ee",
        "239": "uni00ef",
        "240": "uni00f0",
        "241": "uni00f1",
        "242": "uni00f2",
        "243": "uni00f3",
        "244": "uni00f4",
        "245": "uni00f5",
        "246": "uni00f6",
        "247": "uni00f7",
        "248": "uni00f8",
        "249": "uni00f9",
        "250": "uni00fa",
        "251": "uni00fb",
        "252": "uni00fc",
        "253": "uni00fd",
        "254": "uni00fe",
        "255": "uni00ff",
        "256": "uni0100",
        "257": "uni0101",
        "258": "uni0102",
        "259": "uni0103",
        "260": "uni0104",
        "261": "uni0105",
        "262": "uni0106",
        "263": "uni0107",
        "264": "uni0108",
        "265": "uni0109",
        "266": "uni010a",
        "267": "uni010b",
        "268": "uni010c",
        "269": "uni010d",
        "270": "uni010e",
        "271": "uni010f",
        "272": "uni0110",
        "273": "uni0111",
        "274": "uni0112",
        "275": "uni0113",
        "276": "uni0114",
        "277": "uni0115",
        "278": "uni0116",
        "279": "uni0117",
        "280": "uni0118",
        "281": "uni0119",
        "282": "uni011a",
        "283": "uni011b",
        "284": "uni011c",
        "285": "uni011d",
        "286": "uni011e",
        "287": "uni011f",
        "288": "uni0120",
        "289": "uni0121",
        "290": "uni0122",
        "291": "uni0123",
        "292": "uni0124",
        "293": "uni0125",
        "294": "uni0126",
        "295": "uni0127",
        "296": "uni0128",
        "297": "uni0129",
        "298": "uni012a",
        "299": "uni012b",
        "300": "uni012c",
        "301": "uni012d",
        "302": "uni012e",
        "303": "uni012f",
        "304": "uni0130",
        "305": "uni0131",
        "306": "uni0132",
        "307": "uni0133",
        "308": "uni0134",
        "309": "uni0135",
        "310": "uni0136",
        "311": "uni0137",
        "312": "uni0138",
        "313": "uni0139",
        "314": "uni013a",
        "315": "uni013b",
        "316": "uni013c",
        "317": "uni013d",
        "318": "uni013e",
        "319": "uni013f",
        "320": "uni0140",
        "321": "uni0141",
        "322": "uni0142",
        "323": "uni0143",
        "324": "uni0144",
        "325": "uni0145",
        "326": "uni0146",
        "327": "uni0147",
        "328": "uni0148",
        "329": "uni0149",
        "330": "uni014a",
        "331": "uni014b",
        "332": "uni014c",
        "333": "uni014d",
        "334": "uni014e",
        "335": "uni014f",
        "336": "uni0150",
        "337": "uni0151",
        "338": "uni0152",
        "339": "uni0153",
        "340": "uni0154",
        "341": "uni0155",
        "342": "uni0156",
        "343": "uni0157",
        "344": "uni0158",
        "345": "uni0159",
        "346": "uni015a",
        "347": "uni015b",
        "348": "uni015c",
        "349": "uni015d",
        "350": "uni015e",
        "351": "uni015f",
        "352": "uni0160",
        "353": "uni0161",
        "354": "uni0162",
        "355": "uni0163",
        "356": "uni0164",
        "357": "uni0165",
        "358": "uni0166",
        "359": "uni0167",
        "360": "uni0168",
        "361": "uni0169",
        "362": "uni016a",
        "363": "uni016b",
        "364": "uni016c",
        "365": "uni016d",
        "366": "uni016e",
        "367": "uni016f",
        "368": "uni0170",
        "369": "uni0171",
        "370": "uni0172",
        "371": "uni0173",
        "372": "uni0174",
        "373": "uni0175",
        "374": "uni0176",
        "375": "uni0177",
        "376": "uni0178",
        "377": "uni0179",
        "378": "uni017a",
        "379": "uni017b",
        "380": "uni017c",
        "381": "uni017d",
        "382": "uni017e",
        "383": "uni017f",
        "399": "uni018f",
        "402": "uni0192",
        "416": "uni01a0",
        "417": "uni01a1",
        "431": "uni01af",
        "432": "uni01b0",
        "506": "uni01fa",
        "507": "uni01fb",
        "508": "uni01fc",
        "509": "uni01fd",
        "510": "uni01fe",
        "511": "uni01ff",
        "536": "uni0218",
        "537": "uni0219",
        "538": "uni021a",
        "539": "uni021b",
        "567": "uni0237",
        "601": "uni0259",
        "710": "uni02c6",
        "711": "uni02c7",
        "713": "uni02c9",
        "728": "uni02d8",
        "729": "uni02d9",
        "730": "uni02da",
        "731": "uni02db",
        "732": "uni02dc",
        "733": "uni02dd",
        "768": "uni0300",
        "769": "uni0301",
        "770": "uni0302",
        "771": "uni0303",
        "774": "uni0306",
        "776": "uni0308",
        "777": "uni0309",
        "779": "uni030b",
        "780": "uni030c",
        "803": "uni0323",
        "806": "uni0326",
        "819": "uni0333",
        "839": "uni0347",
        "894": "uni037e",
        "900": "uni0384",
        "901": "uni0385",
        "902": "uni0386",
        "903": "uni0387",
        "904": "uni0388",
        "905": "uni0389",
        "906": "uni038a",
        "908": "uni038c",
        "910": "uni038e",
        "911": "uni038f",
        "912": "uni0390",
        "913": "uni0391",
        "914": "uni0392",
        "915": "uni0393",
        "916": "uni0394",
        "917": "uni0395",
        "918": "uni0396",
        "919": "uni0397",
        "920": "uni0398",
        "921": "uni0399",
        "922": "uni039a",
        "923": "uni039b",
        "924": "uni039c",
        "925": "uni039d",
        "926": "uni039e",
        "927": "uni039f",
        "928": "uni03a0",
        "929": "uni03a1",
        "931": "uni03a3",
        "932": "uni03a4",
        "933": "uni03a5",
        "934": "uni03a6",
        "935": "uni03a7",
        "936": "uni03a8",
        "937": "uni03a9",
        "938": "uni03aa",
        "939": "uni03ab",
        "940": "uni03ac",
        "941": "uni03ad",
        "942": "uni03ae",
        "943": "uni03af",
        "944": "uni03b0",
        "945": "uni03b1",
        "946": "uni03b2",
        "947": "uni03b3",
        "948": "uni03b4",
        "949": "uni03b5",
        "950": "uni03b6",
        "951": "uni03b7",
        "952": "uni03b8",
        "953": "uni03b9",
        "954": "uni03ba",
        "955": "uni03bb",
        "956": "uni03bc",
        "957": "uni03bd",
        "958": "uni03be",
        "959": "uni03bf",
        "960": "uni03c0",
        "961": "uni03c1",
        "962": "uni03c2",
        "963": "uni03c3",
        "964": "uni03c4",
        "965": "uni03c5",
        "966": "uni03c6",
        "967": "uni03c7",
        "968": "uni03c8",
        "969": "uni03c9",
        "970": "uni03ca",
        "971": "uni03cb",
        "972": "uni03cc",
        "973": "uni03cd",
        "974": "uni03ce",
        "982": "uni03d6",
        "1025": "uni0401",
        "1026": "uni0402",
        "1027": "uni0403",
        "1028": "uni0404",
        "1029": "uni0405",
        "1030": "uni0406",
        "1031": "uni0407",
        "1032": "uni0408",
        "1033": "uni0409",
        "1034": "uni040a",
        "1035": "uni040b",
        "1036": "uni040c",
        "1037": "uni040d",
        "1038": "uni040e",
        "1039": "uni040f",
        "1040": "uni0410",
        "1041": "uni0411",
        "1042": "uni0412",
        "1043": "uni0413",
        "1044": "uni0414",
        "1045": "uni0415",
        "1046": "uni0416",
        "1047": "uni0417",
        "1048": "uni0418",
        "1049": "uni0419",
        "1050": "uni041a",
        "1051": "uni041b",
        "1052": "uni041c",
        "1053": "uni041d",
        "1054": "uni041e",
        "1055": "uni041f",
        "1056": "uni0420",
        "1057": "uni0421",
        "1058": "uni0422",
        "1059": "uni0423",
        "1060": "uni0424",
        "1061": "uni0425",
        "1062": "uni0426",
        "1063": "uni0427",
        "1064": "uni0428",
        "1065": "uni0429",
        "1066": "uni042a",
        "1067": "uni042b",
        "1068": "uni042c",
        "1069": "uni042d",
        "1070": "uni042e",
        "1071": "uni042f",
        "1072": "uni0430",
        "1073": "uni0431",
        "1074": "uni0432",
        "1075": "uni0433",
        "1076": "uni0434",
        "1077": "uni0435",
        "1078": "uni0436",
        "1079": "uni0437",
        "1080": "uni0438",
        "1081": "uni0439",
        "1082": "uni043a",
        "1083": "uni043b",
        "1084": "uni043c",
        "1085": "uni043d",
        "1086": "uni043e",
        "1087": "uni043f",
        "1088": "uni0440",
        "1089": "uni0441",
        "1090": "uni0442",
        "1091": "uni0443",
        "1092": "uni0444",
        "1093": "uni0445",
        "1094": "uni0446",
        "1095": "uni0447",
        "1096": "uni0448",
        "1097": "uni0449",
        "1098": "uni044a",
        "1099": "uni044b",
        "1100": "uni044c",
        "1101": "uni044d",
        "1102": "uni044e",
        "1103": "uni044f",
        "1105": "uni0451",
        "1106": "uni0452",
        "1107": "uni0453",
        "1108": "uni0454",
        "1109": "uni0455",
        "1110": "uni0456",
        "1111": "uni0457",
        "1112": "uni0458",
        "1113": "uni0459",
        "1114": "uni045a",
        "1115": "uni045b",
        "1116": "uni045c",
        "1117": "uni045d",
        "1118": "uni045e",
        "1119": "uni045f",
        "1144": "uni0478",
        "1145": "uni0479",
        "1148": "uni047c",
        "1149": "uni047d",
        "1159": "uni0487",
        "1168": "uni0490",
        "1169": "uni0491",
        "1170": "uni0492",
        "1171": "uni0493",
        "1174": "uni0496",
        "1175": "uni0497",
        "1178": "uni049a",
        "1179": "uni049b",
        "1180": "uni049c",
        "1181": "uni049d",
        "1186": "uni04a2",
        "1187": "uni04a3",
        "1192": "uni04a8",
        "1193": "uni04a9",
        "1196": "uni04ac",
        "1197": "uni04ad",
        "1198": "uni04ae",
        "1199": "uni04af",
        "1200": "uni04b0",
        "1201": "uni04b1",
        "1202": "uni04b2",
        "1203": "uni04b3",
        "1204": "uni04b4",
        "1205": "uni04b5",
        "1208": "uni04b8",
        "1209": "uni04b9",
        "1210": "uni04ba",
        "1211": "uni04bb",
        "1212": "uni04bc",
        "1213": "uni04bd",
        "1214": "uni04be",
        "1215": "uni04bf",
        "1240": "uni04d8",
        "1241": "uni04d9",
        "1256": "uni04e8",
        "1257": "uni04e9",
        "1270": "uni04f6",
        "1271": "uni04f7",
        "1306": "uni051a",
        "1307": "uni051b",
        "1308": "uni051c",
        "1309": "uni051d",
        "1329": "uni0531",
        "1330": "uni0532",
        "1331": "uni0533",
        "1332": "uni0534",
        "1333": "uni0535",
        "1334": "uni0536",
        "1335": "uni0537",
        "1336": "uni0538",
        "1337": "uni0539",
        "1338": "uni053a",
        "1339": "uni053b",
        "1340": "uni053c",
        "1341": "uni053d",
        "1342": "uni053e",
        "1343": "uni053f",
        "1344": "uni0540",
        "1345": "uni0541",
        "1346": "uni0542",
        "1347": "uni0543",
        "1348": "uni0544",
        "1349": "uni0545",
        "1350": "uni0546",
        "1351": "uni0547",
        "1352": "uni0548",
        "1353": "uni0549",
        "1354": "uni054a",
        "1355": "uni054b",
        "1356": "uni054c",
        "1357": "uni054d",
        "1358": "uni054e",
        "1359": "uni054f",
        "1360": "uni0550",
        "1361": "uni0551",
        "1362": "uni0552",
        "1363": "uni0553",
        "1364": "uni0554",
        "1365": "uni0555",
        "1366": "uni0556",
        "1369": "uni0559",
        "1370": "uni055a",
        "1371": "uni055b",
        "1372": "uni055c",
        "1373": "uni055d",
        "1374": "uni055e",
        "1375": "uni055f",
        "1377": "uni0561",
        "1378": "uni0562",
        "1379": "uni0563",
        "1380": "uni0564",
        "1381": "uni0565",
        "1382": "uni0566",
        "1383": "uni0567",
        "1384": "uni0568",
        "1385": "uni0569",
        "1386": "uni056a",
        "1387": "uni056b",
        "1388": "uni056c",
        "1389": "uni056d",
        "1390": "uni056e",
        "1391": "uni056f",
        "1392": "uni0570",
        "1393": "uni0571",
        "1394": "uni0572",
        "1395": "uni0573",
        "1396": "uni0574",
        "1397": "uni0575",
        "1398": "uni0576",
        "1399": "uni0577",
        "1400": "uni0578",
        "1401": "uni0579",
        "1402": "uni057a",
        "1403": "uni057b",
        "1404": "uni057c",
        "1405": "uni057d",
        "1406": "uni057e",
        "1407": "uni057f",
        "1408": "uni0580",
        "1409": "uni0581",
        "1410": "uni0582",
        "1411": "uni0583",
        "1412": "uni0584",
        "1413": "uni0585",
        "1414": "uni0586",
        "1415": "uni0587",
        "1417": "uni0589",
        "1418": "uni058a",
        "1423": "uni058f",
        "3647": "uni0e3f",
        "7808": "uni1e80",
        "7809": "uni1e81",
        "7810": "uni1e82",
        "7811": "uni1e83",
        "7812": "uni1e84",
        "7813": "uni1e85",
        "7838": "uni1e9e",
        "7840": "uni1ea0",
        "7841": "uni1ea1",
        "7842": "uni1ea2",
        "7843": "uni1ea3",
        "7844": "uni1ea4",
        "7845": "uni1ea5",
        "7846": "uni1ea6",
        "7847": "uni1ea7",
        "7848": "uni1ea8",
        "7849": "uni1ea9",
        "7850": "uni1eaa",
        "7851": "uni1eab",
        "7852": "uni1eac",
        "7853": "uni1ead",
        "7854": "uni1eae",
        "7855": "uni1eaf",
        "7856": "uni1eb0",
        "7857": "uni1eb1",
        "7858": "uni1eb2",
        "7859": "uni1eb3",
        "7860": "uni1eb4",
        "7861": "uni1eb5",
        "7862": "uni1eb6",
        "7863": "uni1eb7",
        "7864": "uni1eb8",
        "7865": "uni1eb9",
        "7866": "uni1eba",
        "7867": "uni1ebb",
        "7868": "uni1ebc",
        "7869": "uni1ebd",
        "7870": "uni1ebe",
        "7871": "uni1ebf",
        "7872": "uni1ec0",
        "7873": "uni1ec1",
        "7874": "uni1ec2",
        "7875": "uni1ec3",
        "7876": "uni1ec4",
        "7877": "uni1ec5",
        "7878": "uni1ec6",
        "7879": "uni1ec7",
        "7880": "uni1ec8",
        "7881": "uni1ec9",
        "7882": "uni1eca",
        "7883": "uni1ecb",
        "7884": "uni1ecc",
        "7885": "uni1ecd",
        "7886": "uni1ece",
        "7887": "uni1ecf",
        "7888": "uni1ed0",
        "7889": "uni1ed1",
        "7890": "uni1ed2",
        "7891": "uni1ed3",
        "7892": "uni1ed4",
        "7893": "uni1ed5",
        "7894": "uni1ed6",
        "7895": "uni1ed7",
        "7896": "uni1ed8",
        "7897": "uni1ed9",
        "7898": "uni1eda",
        "7899": "uni1edb",
        "7900": "uni1edc",
        "7901": "uni1edd",
        "7902": "uni1ede",
        "7903": "uni1edf",
        "7904": "uni1ee0",
        "7905": "uni1ee1",
        "7906": "uni1ee2",
        "7907": "uni1ee3",
        "7908": "uni1ee4",
        "7909": "uni1ee5",
        "7910": "uni1ee6",
        "7911": "uni1ee7",
        "7912": "uni1ee8",
        "7913": "uni1ee9",
        "7914": "uni1eea",
        "7915": "uni1eeb",
        "7916": "uni1eec",
        "7917": "uni1eed",
        "7918": "uni1eee",
        "7919": "uni1eef",
        "7920": "uni1ef0",
        "7921": "uni1ef1",
        "7922": "uni1ef2",
        "7923": "uni1ef3",
        "7924": "uni1ef4",
        "7925": "uni1ef5",
        "7926": "uni1ef6",
        "7927": "uni1ef7",
        "7928": "uni1ef8",
        "7929": "uni1ef9",
        "8210": "uni2012",
        "8211": "uni2013",
        "8212": "uni2014",
        "8213": "uni2015",
        "8215": "uni2017",
        "8216": "uni2018",
        "8217": "uni2019",
        "8218": "uni201a",
        "8219": "uni201b",
        "8220": "uni201c",
        "8221": "uni201d",
        "8222": "uni201e",
        "8223": "uni201f",
        "8224": "uni2020",
        "8225": "uni2021",
        "8226": "uni2022",
        "8230": "uni2026",
        "8239": "uni202f",
        "8240": "uni2030",
        "8242": "uni2032",
        "8243": "uni2033",
        "8244": "uni2034",
        "8249": "uni2039",
        "8250": "uni203a",
        "8252": "uni203c",
        "8254": "uni203e",
        "8260": "uni2044",
        "8304": "uni2070",
        "8308": "uni2074",
        "8309": "uni2075",
        "8310": "uni2076",
        "8311": "uni2077",
        "8312": "uni2078",
        "8313": "uni2079",
        "8319": "uni207f",
        "8320": "uni2080",
        "8321": "uni2081",
        "8322": "uni2082",
        "8323": "uni2083",
        "8324": "uni2084",
        "8325": "uni2085",
        "8326": "uni2086",
        "8327": "uni2087",
        "8328": "uni2088",
        "8329": "uni2089",
        "8352": "uni20a0",
        "8353": "uni20a1",
        "8354": "uni20a2",
        "8355": "uni20a3",
        "8356": "uni20a4",
        "8357": "uni20a5",
        "8358": "uni20a6",
        "8359": "uni20a7",
        "8360": "uni20a8",
        "8361": "uni20a9",
        "8362": "uni20aa",
        "8363": "uni20ab",
        "8364": "uni20ac",
        "8365": "uni20ad",
        "8366": "uni20ae",
        "8367": "uni20af",
        "8368": "uni20b0",
        "8369": "uni20b1",
        "8370": "uni20b2",
        "8371": "uni20b3",
        "8372": "uni20b4",
        "8373": "uni20b5",
        "8376": "uni20b8",
        "8377": "uni20b9",
        "8432": "uni20f0",
        "8453": "uni2105",
        "8467": "uni2113",
        "8470": "uni2116",
        "8480": "uni2120",
        "8482": "uni2122",
        "8486": "uni2126",
        "8494": "uni212e",
        "8539": "uni215b",
        "8540": "uni215c",
        "8541": "uni215d",
        "8542": "uni215e",
        "8706": "uni2202",
        "8710": "uni2206",
        "8719": "uni220f",
        "8721": "uni2211",
        "8722": "uni2212",
        "8725": "uni2215",
        "8729": "uni2219",
        "8730": "uni221a",
        "8734": "uni221e",
        "8747": "uni222b",
        "8776": "uni2248",
        "8800": "uni2260",
        "8801": "uni2261",
        "8804": "uni2264",
        "8805": "uni2265",
        "9472": "uni2500",
        "9474": "uni2502",
        "9484": "uni250c",
        "9488": "uni2510",
        "9492": "uni2514",
        "9496": "uni2518",
        "9633": "uni25a1",
        "9642": "uni25aa",
        "9643": "uni25ab",
        "9674": "uni25ca",
        "9679": "uni25cf",
        "9702": "uni25e6",
        "9834": "uni266a",
        "11373": "uni2c6d",
        "11377": "uni2c71",
        "11378": "uni2c72",
        "11379": "uni2c73",
        "42779": "unia71b",
        "42780": "unia71c",
        "42781": "unia71d",
        "42782": "unia71e",
        "42783": "unia71f",
        "42888": "unia788",
        "42889": "unia789",
        "42890": "unia78a",
        "42891": "unia78b",
        "42892": "unia78c",
        "64256": "unifb00",
        "64257": "unifb01",
        "64258": "unifb02",
        "64259": "unifb03",
        "64260": "unifb04",
        "64275": "unifb13",
        "64276": "unifb14",
        "64277": "unifb15",
        "64278": "unifb16",
        "64279": "unifb17",
        "65509": "uniffe5",
        "65510": "uniffe6",
        "65533": "unifffd"
    },
    "isUnicode": true,
    "EncodingScheme": "FontSpecific",
    "FontName": "Verdana",
    "FullName": "Verdana",
    "Version": "Version 5.31",
    "PostScriptName": "Verdana",
    "Weight": "Medium",
    "ItalicAngle": "0",
    "IsFixedPitch": "false",
    "UnderlineThickness": "59",
    "UnderlinePosition": "-88",
    "FontHeightOffset": "0",
    "Ascender": "1005",
    "Descender": "-210",
    "FontBBox": [
        "-560",
        "-303",
        "1523",
        "1051"
    ],
    "StartCharMetrics": "1391",
    "C": {
        "32": 352,
        "33": 394,
        "34": 459,
        "35": 818,
        "36": 636,
        "37": 1076,
        "38": 727,
        "39": 269,
        "40": 454,
        "41": 454,
        "42": 636,
        "43": 818,
        "44": 364,
        "45": 454,
        "46": 364,
        "47": 454,
        "48": 636,
        "49": 636,
        "50": 636,
        "51": 636,
        "52": 636,
        "53": 636,
        "54": 636,
        "55": 636,
        "56": 636,
        "57": 636,
        "58": 454,
        "59": 454,
        "60": 818,
        "61": 818,
        "62": 818,
        "63": 545,
        "64": 1000,
        "65": 684,
        "66": 686,
        "67": 698,
        "68": 771,
        "69": 632,
        "70": 575,
        "71": 775,
        "72": 751,
        "73": 421,
        "74": 455,
        "75": 693,
        "76": 557,
        "77": 843,
        "78": 748,
        "79": 787,
        "80": 603,
        "81": 787,
        "82": 695,
        "83": 684,
        "84": 616,
        "85": 732,
        "86": 684,
        "87": 989,
        "88": 685,
        "89": 615,
        "90": 685,
        "91": 454,
        "92": 454,
        "93": 454,
        "94": 818,
        "95": 636,
        "96": 636,
        "97": 601,
        "98": 623,
        "99": 521,
        "100": 623,
        "101": 596,
        "102": 352,
        "103": 623,
        "104": 633,
        "105": 274,
        "106": 344,
        "107": 592,
        "108": 274,
        "109": 973,
        "110": 633,
        "111": 607,
        "112": 623,
        "113": 623,
        "114": 427,
        "115": 521,
        "116": 394,
        "117": 633,
        "118": 592,
        "119": 818,
        "120": 592,
        "121": 592,
        "122": 525,
        "123": 635,
        "124": 454,
        "125": 635,
        "126": 818,
        "160": 352,
        "161": 394,
        "162": 636,
        "163": 636,
        "164": 636,
        "165": 636,
        "166": 454,
        "167": 636,
        "168": 636,
        "169": 1000,
        "170": 545,
        "171": 645,
        "172": 818,
        "173": 454,
        "174": 1000,
        "175": 636,
        "176": 542,
        "177": 818,
        "178": 542,
        "179": 542,
        "180": 636,
        "181": 642,
        "182": 636,
        "183": 364,
        "184": 636,
        "185": 542,
        "186": 545,
        "187": 645,
        "188": 1000,
        "189": 1000,
        "190": 1000,
        "191": 545,
        "192": 684,
        "193": 684,
        "194": 684,
        "195": 684,
        "196": 684,
        "197": 684,
        "198": 984,
        "199": 698,
        "200": 632,
        "201": 632,
        "202": 632,
        "203": 632,
        "204": 421,
        "205": 421,
        "206": 421,
        "207": 421,
        "208": 775,
        "209": 748,
        "210": 787,
        "211": 787,
        "212": 787,
        "213": 787,
        "214": 787,
        "215": 818,
        "216": 787,
        "217": 732,
        "218": 732,
        "219": 732,
        "220": 732,
        "221": 615,
        "222": 605,
        "223": 620,
        "224": 601,
        "225": 601,
        "226": 601,
        "227": 601,
        "228": 601,
        "229": 601,
        "230": 955,
        "231": 521,
        "232": 596,
        "233": 596,
        "234": 596,
        "235": 596,
        "236": 274,
        "237": 274,
        "238": 274,
        "239": 274,
        "240": 612,
        "241": 633,
        "242": 607,
        "243": 607,
        "244": 607,
        "245": 607,
        "246": 607,
        "247": 818,
        "248": 607,
        "249": 633,
        "250": 633,
        "251": 633,
        "252": 633,
        "253": 592,
        "254": 623,
        "255": 592,
        "256": 684,
        "257": 601,
        "258": 684,
        "259": 601,
        "260": 684,
        "261": 601,
        "262": 698,
        "263": 521,
        "264": 698,
        "265": 521,
        "266": 698,
        "267": 521,
        "268": 698,
        "269": 521,
        "270": 771,
        "271": 647,
        "272": 775,
        "273": 623,
        "274": 632,
        "275": 596,
        "276": 632,
        "277": 596,
        "278": 632,
        "279": 596,
        "280": 632,
        "281": 596,
        "282": 632,
        "283": 596,
        "284": 775,
        "285": 623,
        "286": 775,
        "287": 623,
        "288": 775,
        "289": 623,
        "290": 775,
        "291": 623,
        "292": 751,
        "293": 633,
        "294": 751,
        "295": 633,
        "296": 421,
        "297": 274,
        "298": 421,
        "299": 274,
        "300": 421,
        "301": 274,
        "302": 421,
        "303": 274,
        "304": 421,
        "305": 274,
        "306": 871,
        "307": 614,
        "308": 455,
        "309": 344,
        "310": 693,
        "311": 592,
        "312": 592,
        "313": 557,
        "314": 274,
        "315": 557,
        "316": 274,
        "317": 557,
        "318": 296,
        "319": 557,
        "320": 458,
        "321": 562,
        "322": 284,
        "323": 748,
        "324": 633,
        "325": 748,
        "326": 633,
        "327": 748,
        "328": 633,
        "329": 730,
        "330": 748,
        "331": 633,
        "332": 787,
        "333": 607,
        "334": 787,
        "335": 607,
        "336": 787,
        "337": 607,
        "338": 1070,
        "339": 981,
        "340": 695,
        "341": 427,
        "342": 695,
        "343": 427,
        "344": 695,
        "345": 427,
        "346": 684,
        "347": 521,
        "348": 684,
        "349": 521,
        "350": 684,
        "351": 521,
        "352": 684,
        "353": 521,
        "354": 616,
        "355": 394,
        "356": 616,
        "357": 394,
        "358": 616,
        "359": 394,
        "360": 732,
        "361": 633,
        "362": 732,
        "363": 633,
        "364": 732,
        "365": 633,
        "366": 732,
        "367": 633,
        "368": 732,
        "369": 633,
        "370": 732,
        "371": 630,
        "372": 989,
        "373": 818,
        "374": 615,
        "375": 592,
        "376": 615,
        "377": 685,
        "378": 525,
        "379": 685,
        "380": 525,
        "381": 685,
        "382": 525,
        "383": 300,
        "399": 755,
        "402": 636,
        "416": 807,
        "417": 607,
        "431": 756,
        "432": 660,
        "506": 684,
        "507": 601,
        "508": 984,
        "509": 955,
        "510": 787,
        "511": 607,
        "536": 684,
        "537": 521,
        "538": 616,
        "539": 394,
        "567": 344,
        "601": 596,
        "710": 636,
        "711": 636,
        "713": 636,
        "728": 636,
        "729": 636,
        "730": 636,
        "731": 636,
        "732": 636,
        "733": 636,
        "768": 0,
        "769": 0,
        "770": 636,
        "771": 0,
        "774": 636,
        "776": 636,
        "777": 0,
        "779": 636,
        "780": 636,
        "803": 0,
        "806": 364,
        "819": 0,
        "839": 0,
        "894": 454,
        "900": 636,
        "901": 636,
        "902": 684,
        "903": 454,
        "904": 751,
        "905": 870,
        "906": 540,
        "908": 881,
        "910": 753,
        "911": 908,
        "912": 274,
        "913": 684,
        "914": 686,
        "915": 566,
        "916": 703,
        "917": 632,
        "918": 685,
        "919": 751,
        "920": 787,
        "921": 421,
        "922": 693,
        "923": 686,
        "924": 843,
        "925": 748,
        "926": 649,
        "927": 787,
        "928": 751,
        "929": 603,
        "931": 672,
        "932": 616,
        "933": 615,
        "934": 819,
        "935": 685,
        "936": 871,
        "937": 818,
        "938": 421,
        "939": 615,
        "940": 623,
        "941": 513,
        "942": 633,
        "943": 274,
        "944": 631,
        "945": 623,
        "946": 620,
        "947": 592,
        "948": 608,
        "949": 513,
        "950": 458,
        "951": 633,
        "952": 624,
        "953": 274,
        "954": 592,
        "955": 592,
        "956": 640,
        "957": 592,
        "958": 503,
        "959": 607,
        "960": 637,
        "961": 625,
        "962": 508,
        "963": 630,
        "964": 496,
        "965": 631,
        "966": 790,
        "967": 590,
        "968": 822,
        "969": 813,
        "970": 274,
        "971": 631,
        "972": 607,
        "973": 631,
        "974": 813,
        "982": 708,
        "1025": 632,
        "1026": 792,
        "1027": 566,
        "1028": 701,
        "1029": 684,
        "1030": 421,
        "1031": 421,
        "1032": 455,
        "1033": 1118,
        "1034": 1103,
        "1035": 818,
        "1036": 693,
        "1037": 750,
        "1038": 615,
        "1039": 751,
        "1040": 684,
        "1041": 686,
        "1042": 686,
        "1043": 566,
        "1044": 746,
        "1045": 632,
        "1046": 973,
        "1047": 616,
        "1048": 750,
        "1049": 750,
        "1050": 693,
        "1051": 734,
        "1052": 843,
        "1053": 751,
        "1054": 787,
        "1055": 751,
        "1056": 603,
        "1057": 698,
        "1058": 616,
        "1059": 615,
        "1060": 819,
        "1061": 685,
        "1062": 761,
        "1063": 712,
        "1064": 1030,
        "1065": 1045,
        "1066": 783,
        "1067": 920,
        "1068": 681,
        "1069": 701,
        "1070": 1034,
        "1071": 706,
        "1072": 601,
        "1073": 614,
        "1074": 595,
        "1075": 471,
        "1076": 622,
        "1077": 596,
        "1078": 798,
        "1079": 524,
        "1080": 640,
        "1081": 640,
        "1082": 592,
        "1083": 621,
        "1084": 696,
        "1085": 637,
        "1086": 607,
        "1087": 637,
        "1088": 623,
        "1089": 534,
        "1090": 496,
        "1091": 592,
        "1092": 841,
        "1093": 592,
        "1094": 645,
        "1095": 605,
        "1096": 876,
        "1097": 888,
        "1098": 641,
        "1099": 794,
        "1100": 571,
        "1101": 547,
        "1102": 839,
        "1103": 600,
        "1105": 596,
        "1106": 633,
        "1107": 471,
        "1108": 547,
        "1109": 521,
        "1110": 274,
        "1111": 274,
        "1112": 344,
        "1113": 914,
        "1114": 914,
        "1115": 633,
        "1116": 592,
        "1117": 640,
        "1118": 592,
        "1119": 637,
        "1144": 1188,
        "1145": 1040,
        "1148": 983,
        "1149": 813,
        "1159": 636,
        "1168": 566,
        "1169": 471,
        "1170": 566,
        "1171": 471,
        "1174": 973,
        "1175": 798,
        "1178": 693,
        "1179": 592,
        "1180": 693,
        "1181": 592,
        "1186": 751,
        "1187": 637,
        "1192": 787,
        "1193": 617,
        "1196": 616,
        "1197": 496,
        "1198": 615,
        "1199": 592,
        "1200": 615,
        "1201": 592,
        "1202": 685,
        "1203": 592,
        "1204": 909,
        "1205": 745,
        "1208": 712,
        "1209": 605,
        "1210": 712,
        "1211": 633,
        "1212": 878,
        "1213": 689,
        "1214": 878,
        "1215": 689,
        "1240": 755,
        "1241": 596,
        "1256": 787,
        "1257": 607,
        "1270": 566,
        "1271": 471,
        "1306": 787,
        "1307": 623,
        "1308": 989,
        "1309": 818,
        "1329": 749,
        "1330": 724,
        "1331": 719,
        "1332": 704,
        "1333": 736,
        "1334": 720,
        "1335": 628,
        "1336": 726,
        "1337": 803,
        "1338": 724,
        "1339": 677,
        "1340": 548,
        "1341": 842,
        "1342": 783,
        "1343": 687,
        "1344": 583,
        "1345": 700,
        "1346": 714,
        "1347": 753,
        "1348": 761,
        "1349": 675,
        "1350": 694,
        "1351": 687,
        "1352": 734,
        "1353": 667,
        "1354": 785,
        "1355": 739,
        "1356": 762,
        "1357": 732,
        "1358": 708,
        "1359": 684,
        "1360": 680,
        "1361": 702,
        "1362": 518,
        "1363": 819,
        "1364": 732,
        "1365": 787,
        "1366": 808,
        "1369": 237,
        "1370": 224,
        "1371": 163,
        "1372": 246,
        "1373": 188,
        "1374": 281,
        "1375": 518,
        "1377": 974,
        "1378": 637,
        "1379": 640,
        "1380": 656,
        "1381": 639,
        "1382": 625,
        "1383": 547,
        "1384": 637,
        "1385": 787,
        "1386": 638,
        "1387": 637,
        "1388": 277,
        "1389": 981,
        "1390": 618,
        "1391": 637,
        "1392": 633,
        "1393": 606,
        "1394": 642,
        "1395": 603,
        "1396": 637,
        "1397": 277,
        "1398": 639,
        "1399": 479,
        "1400": 633,
        "1401": 433,
        "1402": 977,
        "1403": 542,
        "1404": 659,
        "1405": 633,
        "1406": 642,
        "1407": 972,
        "1408": 637,
        "1409": 623,
        "1410": 464,
        "1411": 972,
        "1412": 646,
        "1413": 607,
        "1414": 744,
        "1415": 826,
        "1417": 175,
        "1418": 363,
        "1423": 636,
        "3647": 686,
        "7808": 989,
        "7809": 818,
        "7810": 989,
        "7811": 818,
        "7812": 989,
        "7813": 818,
        "7838": 678,
        "7840": 684,
        "7841": 601,
        "7842": 684,
        "7843": 601,
        "7844": 684,
        "7845": 601,
        "7846": 684,
        "7847": 601,
        "7848": 684,
        "7849": 601,
        "7850": 684,
        "7851": 601,
        "7852": 684,
        "7853": 601,
        "7854": 684,
        "7855": 601,
        "7856": 684,
        "7857": 601,
        "7858": 684,
        "7859": 601,
        "7860": 684,
        "7861": 601,
        "7862": 684,
        "7863": 601,
        "7864": 632,
        "7865": 596,
        "7866": 632,
        "7867": 596,
        "7868": 632,
        "7869": 596,
        "7870": 632,
        "7871": 596,
        "7872": 632,
        "7873": 596,
        "7874": 632,
        "7875": 596,
        "7876": 632,
        "7877": 596,
        "7878": 632,
        "7879": 596,
        "7880": 421,
        "7881": 274,
        "7882": 421,
        "7883": 274,
        "7884": 787,
        "7885": 607,
        "7886": 787,
        "7887": 607,
        "7888": 787,
        "7889": 607,
        "7890": 787,
        "7891": 607,
        "7892": 787,
        "7893": 607,
        "7894": 787,
        "7895": 607,
        "7896": 787,
        "7897": 607,
        "7898": 807,
        "7899": 607,
        "7900": 807,
        "7901": 607,
        "7902": 807,
        "7903": 607,
        "7904": 807,
        "7905": 607,
        "7906": 807,
        "7907": 607,
        "7908": 732,
        "7909": 633,
        "7910": 732,
        "7911": 633,
        "7912": 756,
        "7913": 660,
        "7914": 756,
        "7915": 660,
        "7916": 756,
        "7917": 660,
        "7918": 756,
        "7919": 660,
        "7920": 756,
        "7921": 660,
        "7922": 615,
        "7923": 592,
        "7924": 615,
        "7925": 592,
        "7926": 615,
        "7927": 592,
        "7928": 615,
        "7929": 592,
        "8210": 636,
        "8211": 636,
        "8212": 1000,
        "8213": 1000,
        "8215": 636,
        "8216": 269,
        "8217": 269,
        "8218": 269,
        "8219": 269,
        "8220": 459,
        "8221": 459,
        "8222": 459,
        "8223": 459,
        "8224": 636,
        "8225": 636,
        "8226": 545,
        "8230": 818,
        "8239": 176,
        "8240": 1521,
        "8242": 361,
        "8243": 557,
        "8244": 557,
        "8249": 454,
        "8250": 454,
        "8252": 625,
        "8254": 636,
        "8260": 361,
        "8304": 542,
        "8308": 542,
        "8309": 542,
        "8310": 542,
        "8311": 542,
        "8312": 542,
        "8313": 542,
        "8319": 545,
        "8320": 542,
        "8321": 542,
        "8322": 542,
        "8323": 542,
        "8324": 542,
        "8325": 542,
        "8326": 542,
        "8327": 542,
        "8328": 542,
        "8329": 542,
        "8352": 636,
        "8353": 698,
        "8354": 698,
        "8355": 636,
        "8356": 636,
        "8357": 973,
        "8358": 748,
        "8359": 1164,
        "8360": 1167,
        "8361": 989,
        "8362": 835,
        "8363": 623,
        "8364": 636,
        "8365": 693,
        "8366": 616,
        "8367": 1000,
        "8368": 521,
        "8369": 603,
        "8370": 775,
        "8371": 684,
        "8372": 684,
        "8373": 698,
        "8376": 636,
        "8377": 636,
        "8432": 0,
        "8453": 1076,
        "8467": 323,
        "8470": 1172,
        "8480": 1128,
        "8482": 977,
        "8486": 818,
        "8494": 718,
        "8539": 1000,
        "8540": 1000,
        "8541": 1000,
        "8542": 1000,
        "8706": 636,
        "8710": 727,
        "8719": 818,
        "8721": 727,
        "8722": 818,
        "8725": 361,
        "8729": 364,
        "8730": 818,
        "8734": 1000,
        "8747": 636,
        "8776": 818,
        "8800": 818,
        "8801": 818,
        "8804": 818,
        "8805": 818,
        "9472": 708,
        "9474": 708,
        "9484": 708,
        "9488": 708,
        "9492": 708,
        "9496": 708,
        "9633": 604,
        "9642": 354,
        "9643": 354,
        "9674": 818,
        "9679": 604,
        "9702": 354,
        "9834": 500,
        "11373": 768,
        "11377": 646,
        "11378": 1056,
        "11379": 875,
        "42779": 446,
        "42780": 446,
        "42781": 266,
        "42782": 266,
        "42783": 266,
        "42888": 636,
        "42889": 454,
        "42890": 532,
        "42891": 269,
        "42892": 269,
        "64256": 703,
        "64257": 625,
        "64258": 626,
        "64259": 969,
        "64260": 971,
        "64275": 1276,
        "64276": 1276,
        "64277": 1276,
        "64278": 1276,
        "64279": 1616,
        "65509": 636,
        "65510": 989,
        "65533": 928
    },
    "CIDtoGID_Compressed": true,
    "CIDtoGID": "eJzt3HW0lsUWx\/H92+PYRXd3d6oIBt3d3Y3SDdKogLRKKkiHAnZ3d3d3d9+Xs47oRUQOIffK97PWM\/O8M3v2xHne88dZ6zlmByjYURbtaDvGjrXj7Hg7wU60k+xkO8VOtVSW2tJYWktn6S2DZbRMltmyWFbLZtkth+W0XJbb8lhey2f5rYAVtEJW2IpYUStmxa2ElbRSVtrKWFkrZ+WtglW0SlbZTrPT7QyrYmdaVatmZ9nZdo6da9WthtW0Wlbb6lhdq2f1rYE1tEbW2JpYU2tmza2FtbRW1traWFtrZ+2tg3W0Tge6+aT9X2GTbHIYbQvsHZtiF9tMW2Jr7crE\/mfI7AKba5\/Z53aRLbRpkr1kn9pSW2df2hf2la20DXaf3WMbrbN1sdnW1R6wbnav3W+P2IP2kD1s71p3e9wetcdsk\/WwT2yOPWVP2JPW0963D2269bZe1sf6WV\/rb8ttgA2ygXaenW9DbLANtWH2ng23kTbCRtkYG23X2gobZ2NtvE2wD+wju17n6Fy5go5StB\/tJ1VXDdVULfvZftHROkbH2q+qrTqqq3qqrwY6TsfrBJ2ohmpk39i3aqwmaqpmaq4WaqlWaq02aqt2aq8O6qhO9p09rYqqpM7qoq7qpu46SSerh3rqFJ2qVEptr9nrSqO06qXeSqf0qqw+6qt+6q8BGqgMymibbYsyKbMG6TxlUVZlU3adr8H2vf1gb9ibyqGcyqXcGqKhGqbhGqGRGqXRyqO8yqf8GqOxGqfxmqCJdoMKqKAKqbC9ZW\/rgr3\/cH16UrV6LxHVvcZeemt6rf14pg4xTdJkTdFUTdP0lI4N08OMMDNcuH8zh5v2b9wf+YwDz\/E\/6hl7NVE+t9eY5+0Fe9FesWft5YMxpdf1euHmMGrnfbglcd3qtRPlbeH2FGWpkzT+jr\/qD3P2LU+4JCWzHrDsv99qiZZqmWZouVZoZeLzFYnrSq3Sal2lNSqitVqn9dqgotqoTdqsLdqqq3WNtml7InKHrtV1KqbrdYNu1E26WbfoVt2m23WHiutO3aUSKqm7dY\/u1X26Xw\/oQT2kh\/WIV9ajekylVFqPq4ye0JN6Sk\/rGT2r5\/T8bqdz56E4BL2gF\/WSXtYrelWv6XW9oTf1lt4Os\/SO3tV7el8f6EN9pI\/1iT7VZ\/pcX+hLfaWv9Y2+1Xf6Xj\/oR\/2kn\/WLfnVzuXvwozz60X6MH+vH+fF+gp\/oJ\/nJfoqf6qk8tafxtJ7O03sGz+iZPLNn8ayezbN7Ds\/puTy35\/G8ns\/ze4HEs1XQC3lhL+JFvZgX9xJe0kt5aS8TZntZL5fS3Ya5YV5SPT8s2EPvwt1bvLxX8Jme9PvOL\/KLk+pZPtvn+K5n1ef6vF0ZFoXFSfWOcK3P9wW+0Bf5Yr80XBeuT4q9zC\/3Jb40XBouC5eHJSldvy\/z5XvtX+Er\/6ov3BBuTOl8e8yzNCwLy8OKfYuOaWLamC6mjxlixpgpZo5ZYtaYLWaPOWLOmCvmjnli3pgv5o8FYsFYKBaORWLRWCwWjyViyVgqlo5lYtlYLpaPFWLFpHyVYuV4Wjw9nhGrxDMTn6vGavGseHY8J54bq8casWasFWvHOrFurBfrxwaxYWwUG8cmsWlsFpvHFrFlbBVbxzaxbWwX28cOsWPsFDvHLrFr7Ba7J\/L1iD13rb3XwTgvAAAAAACAI5fvONwrAAAAAAAAAAAAAAAA\/\/80UxfqIl2sWZqd0rFhpZm38\/bewTt6J+\/sXbyrd\/Pu3sN7ei\/v7X28r\/fz\/j7AB\/ogP8\/P98E+xIf6MB\/uI3ykj\/LRPsbH+jgf7xN8ol\/gk3yyT\/GpPi3UDfVC\/dAgNAyNQuPQJDQNzULz0CK0DK1C69AmtA3tQvvQIXQMnULn0CV0Dd1C99Aj9Ay9Qu\/QJ\/QN\/UL\/MCAMDIM0R5eEwWFIGBqGheFhxCE4RvyL+Srbald7xcS3paxttx12p+baNbbN7vLVNtFut6nJget3Hxm22d2JUafpdL9qV+PNdkuirVzimveH0IPyZtqfhbuS91DFzwx3e1WvFu75vVflw73hvnB\/eCA8GB4KD4dHwqPhsZTk9zW+1tfZ15rv632DKvhG3+Sbw0i7ybf4Vr\/ar\/FtYXKYEqaGaTvjY6qY+qBtbh+EK\/Y1Umfspa\/KztIr7SH\/mETx29vgy3YbtYc3LA8OLdQiLdalhyr\/EWZRcr3mTz07T3ixfZx0\/9s39A5blXz3129rX77fa7nq70P+yyzfnlTPs\/n7PScAHIHC2MQ1bg\/t45PrCcn1xOT6b\/5jzpFHZ\/6ppaqqHVDK63ZlOitFKzn7gGb91wiTDvcKAAAAAPyzwpXJ9aqwOqT0r4oAAAAAAAAAAAAAAAAAAAAAAAAAAAAAAAAAAAAAAAAAAAAAAAAAAAAAAAAAAAAAAAAAAAAAAAAAAAAAAAAAAAAAAAAAAAAAAAAAAAAAAAAAAAAAAAAAAAAAAAAA9ltYE9aGdWF92HC4V3KwhY1hU9gctoSth3slAAAAAAAAAAAAAAAAAAAAAAAAAAAAAAAAAAAAAAAAAAAAAAAAAAAAAAAAAAAAAAAAAAAAAAAAAAAAAAAAAIC9CY\/brXZbeCI8ubeo2Dv2iX1jv9j\/n1oXAAAA\/tYC35SS8LB9Z\/kfRweeNg==",
    "_version_": 6
}